DS0035.CSV

Format,2.0A,
Memory Length,5000,
Trigger Level,35.0mV,
Source,CH1,
Label, ,
Probe Ratio,1.000E+00,
Vertical Units,V,
Vertical Scale,2.000E-02,
Vertical Position,-1.136E-01,
Horizontal Units,S,
Horizontal Scale,1.000E-05,
Horizontal Position,4.530E-05,
Horizontal Mode,Main,
Sampling Period,2.000E-08,
Firmware,V1.13,
Time,15-Nov-18 23:37:02,
Mode,Detail,
Waveform Data,
-9.530000e-05,7.12e-02,
-9.528000e-05,6.96e-02,
-9.526000e-05,7.12e-02,
-9.524000e-05,6.96e-02,
-9.522000e-05,7.20e-02,
-9.520000e-05,6.88e-02,
-9.518000e-05,7.20e-02,
-9.516000e-05,6.88e-02,
-9.514000e-05,7.12e-02,
-9.512000e-05,6.88e-02,
-9.510000e-05,7.12e-02,
-9.508000e-05,6.88e-02,
-9.506000e-05,7.04e-02,
-9.504000e-05,6.96e-02,
-9.502000e-05,7.12e-02,
-9.500000e-05,6.88e-02,
-9.498000e-05,7.12e-02,
-9.496000e-05,6.96e-02,
-9.494000e-05,7.12e-02,
-9.492000e-05,6.88e-02,
-9.490000e-05,7.12e-02,
-9.488000e-05,6.96e-02,
-9.486000e-05,7.12e-02,
-9.484000e-05,6.96e-02,
-9.482000e-05,7.12e-02,
-9.480000e-05,6.96e-02,
-9.478000e-05,7.12e-02,
-9.476000e-05,6.88e-02,
-9.474000e-05,7.04e-02,
-9.472000e-05,6.96e-02,
-9.470000e-05,7.04e-02,
-9.468000e-05,6.88e-02,
-9.466000e-05,7.12e-02,
-9.464000e-05,6.88e-02,
-9.462000e-05,7.04e-02,
-9.460000e-05,6.88e-02,
-9.458000e-05,7.12e-02,
-9.456000e-05,6.88e-02,
-9.454000e-05,7.12e-02,
-9.452000e-05,6.88e-02,
-9.450000e-05,7.12e-02,
-9.448000e-05,6.88e-02,
-9.446000e-05,7.04e-02,
-9.444000e-05,6.88e-02,
-9.442000e-05,7.04e-02,
-9.440000e-05,6.88e-02,
-9.438000e-05,7.04e-02,
-9.436000e-05,6.88e-02,
-9.434000e-05,7.12e-02,
-9.432000e-05,6.88e-02,
-9.430000e-05,7.12e-02,
-9.428000e-05,6.80e-02,
-9.426000e-05,7.04e-02,
-9.424000e-05,6.88e-02,
-9.422000e-05,7.04e-02,
-9.420000e-05,6.88e-02,
-9.418000e-05,7.04e-02,
-9.416000e-05,6.88e-02,
-9.414000e-05,7.04e-02,
-9.412000e-05,6.88e-02,
-9.410000e-05,7.04e-02,
-9.408000e-05,6.88e-02,
-9.406000e-05,7.04e-02,
-9.404000e-05,6.96e-02,
-9.402000e-05,7.04e-02,
-9.400000e-05,6.88e-02,
-9.398000e-05,7.04e-02,
-9.396000e-05,6.88e-02,
-9.394000e-05,7.04e-02,
-9.392000e-05,6.88e-02,
-9.390000e-05,7.12e-02,
-9.388000e-05,6.80e-02,
-9.386000e-05,7.04e-02,
-9.384000e-05,6.80e-02,
-9.382000e-05,7.04e-02,
-9.380000e-05,6.72e-02,
-9.378000e-05,6.96e-02,
-9.376000e-05,6.80e-02,
-9.374000e-05,6.96e-02,
-9.372000e-05,6.80e-02,
-9.370000e-05,6.96e-02,
-9.368000e-05,6.80e-02,
-9.366000e-05,6.96e-02,
-9.364000e-05,6.80e-02,
-9.362000e-05,7.04e-02,
-9.360000e-05,6.80e-02,
-9.358000e-05,7.04e-02,
-9.356000e-05,6.80e-02,
-9.354000e-05,6.96e-02,
-9.352000e-05,6.80e-02,
-9.350000e-05,7.04e-02,
-9.348000e-05,6.80e-02,
-9.346000e-05,7.04e-02,
-9.344000e-05,6.80e-02,
-9.342000e-05,6.96e-02,
-9.340000e-05,6.96e-02,
-9.338000e-05,7.04e-02,
-9.336000e-05,6.88e-02,
-9.334000e-05,7.04e-02,
-9.332000e-05,6.88e-02,
-9.330000e-05,7.12e-02,
-9.328000e-05,6.80e-02,
-9.326000e-05,7.04e-02,
-9.324000e-05,6.80e-02,
-9.322000e-05,7.04e-02,
-9.320000e-05,6.80e-02,
-9.318000e-05,7.04e-02,
-9.316000e-05,6.88e-02,
-9.314000e-05,7.04e-02,
-9.312000e-05,6.88e-02,
-9.310000e-05,7.12e-02,
-9.308000e-05,6.88e-02,
-9.306000e-05,7.04e-02,
-9.304000e-05,6.88e-02,
-9.302000e-05,7.04e-02,
-9.300000e-05,6.88e-02,
-9.298000e-05,7.04e-02,
-9.296000e-05,6.88e-02,
-9.294000e-05,7.04e-02,
-9.292000e-05,6.88e-02,
-9.290000e-05,7.04e-02,
-9.288000e-05,6.88e-02,
-9.286000e-05,7.04e-02,
-9.284000e-05,6.88e-02,
-9.282000e-05,7.04e-02,
-9.280000e-05,6.88e-02,
-9.278000e-05,7.12e-02,
-9.276000e-05,6.88e-02,
-9.274000e-05,7.04e-02,
-9.272000e-05,6.88e-02,
-9.270000e-05,7.04e-02,
-9.268000e-05,6.88e-02,
-9.266000e-05,7.12e-02,
-9.264000e-05,6.88e-02,
-9.262000e-05,7.04e-02,
-9.260000e-05,6.88e-02,
-9.258000e-05,7.04e-02,
-9.256000e-05,6.88e-02,
-9.254000e-05,7.04e-02,
-9.252000e-05,6.96e-02,
-9.250000e-05,7.04e-02,
-9.248000e-05,7.04e-02,
-9.246000e-05,7.12e-02,
-9.244000e-05,7.04e-02,
-9.242000e-05,7.12e-02,
-9.240000e-05,7.04e-02,
-9.238000e-05,7.20e-02,
-9.236000e-05,6.96e-02,
-9.234000e-05,7.12e-02,
-9.232000e-05,7.12e-02,
-9.230000e-05,7.28e-02,
-9.228000e-05,6.96e-02,
-9.226000e-05,7.20e-02,
-9.224000e-05,6.96e-02,
-9.222000e-05,7.20e-02,
-9.220000e-05,6.96e-02,
-9.218000e-05,7.12e-02,
-9.216000e-05,7.04e-02,
-9.214000e-05,7.20e-02,
-9.212000e-05,7.04e-02,
-9.210000e-05,7.20e-02,
-9.208000e-05,7.12e-02,
-9.206000e-05,7.28e-02,
-9.204000e-05,7.04e-02,
-9.202000e-05,7.28e-02,
-9.200000e-05,7.04e-02,
-9.198000e-05,7.20e-02,
-9.196000e-05,7.04e-02,
-9.194000e-05,7.20e-02,
-9.192000e-05,7.04e-02,
-9.190000e-05,7.12e-02,
-9.188000e-05,7.12e-02,
-9.186000e-05,7.20e-02,
-9.184000e-05,7.04e-02,
-9.182000e-05,7.28e-02,
-9.180000e-05,7.04e-02,
-9.178000e-05,7.28e-02,
-9.176000e-05,7.04e-02,
-9.174000e-05,7.20e-02,
-9.172000e-05,6.96e-02,
-9.170000e-05,7.20e-02,
-9.168000e-05,6.96e-02,
-9.166000e-05,7.20e-02,
-9.164000e-05,6.96e-02,
-9.162000e-05,7.20e-02,
-9.160000e-05,6.96e-02,
-9.158000e-05,7.20e-02,
-9.156000e-05,6.96e-02,
-9.154000e-05,7.20e-02,
-9.152000e-05,6.96e-02,
-9.150000e-05,7.20e-02,
-9.148000e-05,6.96e-02,
-9.146000e-05,7.20e-02,
-9.144000e-05,6.96e-02,
-9.142000e-05,7.12e-02,
-9.140000e-05,6.96e-02,
-9.138000e-05,7.20e-02,
-9.136000e-05,6.96e-02,
-9.134000e-05,7.12e-02,
-9.132000e-05,7.04e-02,
-9.130000e-05,7.12e-02,
-9.128000e-05,6.96e-02,
-9.126000e-05,7.12e-02,
-9.124000e-05,6.96e-02,
-9.122000e-05,7.20e-02,
-9.120000e-05,6.96e-02,
-9.118000e-05,7.04e-02,
-9.116000e-05,7.04e-02,
-9.114000e-05,7.20e-02,
-9.112000e-05,6.96e-02,
-9.110000e-05,7.20e-02,
-9.108000e-05,6.96e-02,
-9.106000e-05,7.20e-02,
-9.104000e-05,6.96e-02,
-9.102000e-05,7.12e-02,
-9.100000e-05,6.96e-02,
-9.098000e-05,7.20e-02,
-9.096000e-05,6.96e-02,
-9.094000e-05,7.12e-02,
-9.092000e-05,6.96e-02,
-9.090000e-05,7.12e-02,
-9.088000e-05,6.96e-02,
-9.086000e-05,7.12e-02,
-9.084000e-05,6.96e-02,
-9.082000e-05,7.12e-02,
-9.080000e-05,6.96e-02,
-9.078000e-05,7.12e-02,
-9.076000e-05,6.96e-02,
-9.074000e-05,7.12e-02,
-9.072000e-05,6.96e-02,
-9.070000e-05,7.28e-02,
-9.068000e-05,6.88e-02,
-9.066000e-05,7.60e-02,
-9.064000e-05,6.32e-02,
-9.062000e-05,1.40e-01,
-9.060000e-05,1.12e-02,
-9.058000e-05,1.14e-01,
-9.056000e-05,4.32e-02,
-9.054000e-05,1.19e-01,
-9.052000e-05,4.16e-02,
-9.050000e-05,7.12e-02,
-9.048000e-05,7.36e-02,
-9.046000e-05,7.92e-02,
-9.044000e-05,6.64e-02,
-9.042000e-05,7.28e-02,
-9.040000e-05,6.88e-02,
-9.038000e-05,7.04e-02,
-9.036000e-05,7.20e-02,
-9.034000e-05,7.12e-02,
-9.032000e-05,7.20e-02,
-9.030000e-05,7.28e-02,
-9.028000e-05,7.12e-02,
-9.026000e-05,7.28e-02,
-9.024000e-05,7.12e-02,
-9.022000e-05,7.28e-02,
-9.020000e-05,7.12e-02,
-9.018000e-05,7.28e-02,
-9.016000e-05,7.04e-02,
-9.014000e-05,7.28e-02,
-9.012000e-05,7.04e-02,
-9.010000e-05,7.28e-02,
-9.008000e-05,7.04e-02,
-9.006000e-05,7.20e-02,
-9.004000e-05,7.12e-02,
-9.002000e-05,7.20e-02,
-9.000000e-05,7.12e-02,
-8.998000e-05,7.20e-02,
-8.996000e-05,7.28e-02,
-8.994000e-05,7.28e-02,
-8.992000e-05,7.20e-02,
-8.990000e-05,7.36e-02,
-8.988000e-05,7.20e-02,
-8.986000e-05,7.36e-02,
-8.984000e-05,7.12e-02,
-8.982000e-05,7.36e-02,
-8.980000e-05,7.12e-02,
-8.978000e-05,7.36e-02,
-8.976000e-05,7.12e-02,
-8.974000e-05,7.36e-02,
-8.972000e-05,7.20e-02,
-8.970000e-05,7.36e-02,
-8.968000e-05,7.20e-02,
-8.966000e-05,7.36e-02,
-8.964000e-05,7.20e-02,
-8.962000e-05,7.36e-02,
-8.960000e-05,7.12e-02,
-8.958000e-05,7.36e-02,
-8.956000e-05,7.12e-02,
-8.954000e-05,7.44e-02,
-8.952000e-05,7.12e-02,
-8.950000e-05,7.44e-02,
-8.948000e-05,7.12e-02,
-8.946000e-05,7.36e-02,
-8.944000e-05,7.20e-02,
-8.942000e-05,7.44e-02,
-8.940000e-05,7.20e-02,
-8.938000e-05,7.44e-02,
-8.936000e-05,7.28e-02,
-8.934000e-05,7.28e-02,
-8.932000e-05,7.44e-02,
-8.930000e-05,7.52e-02,
-8.928000e-05,7.28e-02,
-8.926000e-05,7.52e-02,
-8.924000e-05,7.28e-02,
-8.922000e-05,7.52e-02,
-8.920000e-05,7.28e-02,
-8.918000e-05,7.52e-02,
-8.916000e-05,7.28e-02,
-8.914000e-05,7.52e-02,
-8.912000e-05,7.28e-02,
-8.910000e-05,7.44e-02,
-8.908000e-05,7.36e-02,
-8.906000e-05,7.44e-02,
-8.904000e-05,7.36e-02,
-8.902000e-05,7.52e-02,
-8.900000e-05,7.28e-02,
-8.898000e-05,7.52e-02,
-8.896000e-05,7.28e-02,
-8.894000e-05,7.44e-02,
-8.892000e-05,7.36e-02,
-8.890000e-05,7.52e-02,
-8.888000e-05,7.36e-02,
-8.886000e-05,7.52e-02,
-8.884000e-05,7.28e-02,
-8.882000e-05,7.52e-02,
-8.880000e-05,7.28e-02,
-8.878000e-05,7.52e-02,
-8.876000e-05,7.28e-02,
-8.874000e-05,7.52e-02,
-8.872000e-05,7.28e-02,
-8.870000e-05,7.44e-02,
-8.868000e-05,7.36e-02,
-8.866000e-05,7.44e-02,
-8.864000e-05,7.28e-02,
-8.862000e-05,7.52e-02,
-8.860000e-05,7.28e-02,
-8.858000e-05,7.52e-02,
-8.856000e-05,7.28e-02,
-8.854000e-05,7.52e-02,
-8.852000e-05,7.28e-02,
-8.850000e-05,7.52e-02,
-8.848000e-05,7.28e-02,
-8.846000e-05,7.52e-02,
-8.844000e-05,7.28e-02,
-8.842000e-05,7.52e-02,
-8.840000e-05,7.28e-02,
-8.838000e-05,7.44e-02,
-8.836000e-05,7.36e-02,
-8.834000e-05,7.52e-02,
-8.832000e-05,7.28e-02,
-8.830000e-05,7.44e-02,
-8.828000e-05,7.28e-02,
-8.826000e-05,7.44e-02,
-8.824000e-05,7.28e-02,
-8.822000e-05,7.52e-02,
-8.820000e-05,7.20e-02,
-8.818000e-05,7.44e-02,
-8.816000e-05,7.28e-02,
-8.814000e-05,7.52e-02,
-8.812000e-05,7.28e-02,
-8.810000e-05,7.52e-02,
-8.808000e-05,7.28e-02,
-8.806000e-05,7.44e-02,
-8.804000e-05,7.36e-02,
-8.802000e-05,7.36e-02,
-8.800000e-05,7.52e-02,
-8.798000e-05,7.68e-02,
-8.796000e-05,7.28e-02,
-8.794000e-05,7.60e-02,
-8.792000e-05,7.36e-02,
-8.790000e-05,7.52e-02,
-8.788000e-05,7.44e-02,
-8.786000e-05,7.60e-02,
-8.784000e-05,7.36e-02,
-8.782000e-05,7.60e-02,
-8.780000e-05,7.36e-02,
-8.778000e-05,7.52e-02,
-8.776000e-05,7.36e-02,
-8.774000e-05,7.60e-02,
-8.772000e-05,7.36e-02,
-8.770000e-05,7.60e-02,
-8.768000e-05,7.36e-02,
-8.766000e-05,7.60e-02,
-8.764000e-05,7.36e-02,
-8.762000e-05,7.68e-02,
-8.760000e-05,7.36e-02,
-8.758000e-05,7.60e-02,
-8.756000e-05,7.36e-02,
-8.754000e-05,7.92e-02,
-8.752000e-05,7.20e-02,
-8.750000e-05,8.48e-02,
-8.748000e-05,6.56e-02,
-8.746000e-05,7.84e-02,
-8.744000e-05,7.20e-02,
-8.742000e-05,7.76e-02,
-8.740000e-05,7.28e-02,
-8.738000e-05,7.68e-02,
-8.736000e-05,7.44e-02,
-8.734000e-05,7.60e-02,
-8.732000e-05,7.52e-02,
-8.730000e-05,7.60e-02,
-8.728000e-05,7.44e-02,
-8.726000e-05,7.60e-02,
-8.724000e-05,7.44e-02,
-8.722000e-05,7.68e-02,
-8.720000e-05,7.44e-02,
-8.718000e-05,7.68e-02,
-8.716000e-05,7.44e-02,
-8.714000e-05,7.60e-02,
-8.712000e-05,7.44e-02,
-8.710000e-05,7.68e-02,
-8.708000e-05,7.44e-02,
-8.706000e-05,7.60e-02,
-8.704000e-05,7.44e-02,
-8.702000e-05,7.68e-02,
-8.700000e-05,7.44e-02,
-8.698000e-05,7.60e-02,
-8.696000e-05,7.44e-02,
-8.694000e-05,7.60e-02,
-8.692000e-05,7.36e-02,
-8.690000e-05,7.60e-02,
-8.688000e-05,7.44e-02,
-8.686000e-05,7.60e-02,
-8.684000e-05,7.44e-02,
-8.682000e-05,7.60e-02,
-8.680000e-05,7.44e-02,
-8.678000e-05,7.60e-02,
-8.676000e-05,7.44e-02,
-8.674000e-05,7.60e-02,
-8.672000e-05,7.36e-02,
-8.670000e-05,7.52e-02,
-8.668000e-05,7.44e-02,
-8.666000e-05,7.60e-02,
-8.664000e-05,7.44e-02,
-8.662000e-05,7.60e-02,
-8.660000e-05,7.44e-02,
-8.658000e-05,7.60e-02,
-8.656000e-05,7.36e-02,
-8.654000e-05,7.60e-02,
-8.652000e-05,7.36e-02,
-8.650000e-05,7.60e-02,
-8.648000e-05,7.36e-02,
-8.646000e-05,7.60e-02,
-8.644000e-05,7.36e-02,
-8.642000e-05,7.68e-02,
-8.640000e-05,7.28e-02,
-8.638000e-05,7.44e-02,
-8.636000e-05,7.60e-02,
-8.634000e-05,7.60e-02,
-8.632000e-05,7.52e-02,
-8.630000e-05,7.52e-02,
-8.628000e-05,7.60e-02,
-8.626000e-05,7.60e-02,
-8.624000e-05,7.60e-02,
-8.622000e-05,7.68e-02,
-8.620000e-05,7.52e-02,
-8.618000e-05,7.76e-02,
-8.616000e-05,7.44e-02,
-8.614000e-05,7.76e-02,
-8.612000e-05,7.44e-02,
-8.610000e-05,7.68e-02,
-8.608000e-05,7.44e-02,
-8.606000e-05,7.68e-02,
-8.604000e-05,7.52e-02,
-8.602000e-05,7.68e-02,
-8.600000e-05,7.44e-02,
-8.598000e-05,7.68e-02,
-8.596000e-05,7.52e-02,
-8.594000e-05,7.68e-02,
-8.592000e-05,7.44e-02,
-8.590000e-05,7.68e-02,
-8.588000e-05,7.36e-02,
-8.586000e-05,7.44e-02,
-8.584000e-05,7.84e-02,
-8.582000e-05,7.28e-02,
-8.580000e-05,7.68e-02,
-8.578000e-05,7.68e-02,
-8.576000e-05,7.44e-02,
-8.574000e-05,7.60e-02,
-8.572000e-05,7.44e-02,
-8.570000e-05,7.60e-02,
-8.568000e-05,7.44e-02,
-8.566000e-05,7.68e-02,
-8.564000e-05,7.44e-02,
-8.562000e-05,7.68e-02,
-8.560000e-05,7.36e-02,
-8.558000e-05,7.68e-02,
-8.556000e-05,7.36e-02,
-8.554000e-05,7.60e-02,
-8.552000e-05,7.44e-02,
-8.550000e-05,7.60e-02,
-8.548000e-05,7.36e-02,
-8.546000e-05,7.60e-02,
-8.544000e-05,7.44e-02,
-8.542000e-05,7.60e-02,
-8.540000e-05,7.44e-02,
-8.538000e-05,7.60e-02,
-8.536000e-05,7.44e-02,
-8.534000e-05,7.44e-02,
-8.532000e-05,7.76e-02,
-8.530000e-05,7.60e-02,
-8.528000e-05,7.68e-02,
-8.526000e-05,7.68e-02,
-8.524000e-05,7.68e-02,
-8.522000e-05,7.84e-02,
-8.520000e-05,7.60e-02,
-8.518000e-05,7.84e-02,
-8.516000e-05,7.52e-02,
-8.514000e-05,7.76e-02,
-8.512000e-05,7.60e-02,
-8.510000e-05,7.76e-02,
-8.508000e-05,7.52e-02,
-8.506000e-05,7.76e-02,
-8.504000e-05,7.60e-02,
-8.502000e-05,7.76e-02,
-8.500000e-05,7.60e-02,
-8.498000e-05,7.84e-02,
-8.496000e-05,7.52e-02,
-8.494000e-05,7.76e-02,
-8.492000e-05,7.60e-02,
-8.490000e-05,7.76e-02,
-8.488000e-05,7.52e-02,
-8.486000e-05,7.76e-02,
-8.484000e-05,7.52e-02,
-8.482000e-05,7.68e-02,
-8.480000e-05,7.60e-02,
-8.478000e-05,7.76e-02,
-8.476000e-05,7.44e-02,
-8.474000e-05,7.76e-02,
-8.472000e-05,7.52e-02,
-8.470000e-05,7.76e-02,
-8.468000e-05,7.52e-02,
-8.466000e-05,7.68e-02,
-8.464000e-05,7.52e-02,
-8.462000e-05,7.68e-02,
-8.460000e-05,7.52e-02,
-8.458000e-05,7.68e-02,
-8.456000e-05,7.44e-02,
-8.454000e-05,7.68e-02,
-8.452000e-05,7.52e-02,
-8.450000e-05,7.68e-02,
-8.448000e-05,7.52e-02,
-8.446000e-05,7.68e-02,
-8.444000e-05,7.52e-02,
-8.442000e-05,7.68e-02,
-8.440000e-05,7.44e-02,
-8.438000e-05,7.68e-02,
-8.436000e-05,7.52e-02,
-8.434000e-05,7.68e-02,
-8.432000e-05,7.52e-02,
-8.430000e-05,7.68e-02,
-8.428000e-05,7.44e-02,
-8.426000e-05,7.68e-02,
-8.424000e-05,7.44e-02,
-8.422000e-05,7.68e-02,
-8.420000e-05,7.44e-02,
-8.418000e-05,7.68e-02,
-8.416000e-05,7.44e-02,
-8.414000e-05,7.68e-02,
-8.412000e-05,7.44e-02,
-8.410000e-05,7.68e-02,
-8.408000e-05,7.52e-02,
-8.406000e-05,7.68e-02,
-8.404000e-05,7.44e-02,
-8.402000e-05,7.68e-02,
-8.400000e-05,7.44e-02,
-8.398000e-05,7.60e-02,
-8.396000e-05,7.44e-02,
-8.394000e-05,7.60e-02,
-8.392000e-05,7.44e-02,
-8.390000e-05,7.68e-02,
-8.388000e-05,7.44e-02,
-8.386000e-05,7.68e-02,
-8.384000e-05,7.44e-02,
-8.382000e-05,7.68e-02,
-8.380000e-05,7.44e-02,
-8.378000e-05,7.68e-02,
-8.376000e-05,7.44e-02,
-8.374000e-05,7.60e-02,
-8.372000e-05,7.44e-02,
-8.370000e-05,7.60e-02,
-8.368000e-05,7.52e-02,
-8.366000e-05,7.60e-02,
-8.364000e-05,7.44e-02,
-8.362000e-05,7.60e-02,
-8.360000e-05,7.36e-02,
-8.358000e-05,7.60e-02,
-8.356000e-05,7.36e-02,
-8.354000e-05,7.52e-02,
-8.352000e-05,7.36e-02,
-8.350000e-05,7.52e-02,
-8.348000e-05,7.36e-02,
-8.346000e-05,7.52e-02,
-8.344000e-05,7.36e-02,
-8.342000e-05,7.52e-02,
-8.340000e-05,7.36e-02,
-8.338000e-05,7.52e-02,
-8.336000e-05,7.36e-02,
-8.334000e-05,7.44e-02,
-8.332000e-05,7.44e-02,
-8.330000e-05,7.52e-02,
-8.328000e-05,7.36e-02,
-8.326000e-05,7.60e-02,
-8.324000e-05,7.36e-02,
-8.322000e-05,7.60e-02,
-8.320000e-05,7.28e-02,
-8.318000e-05,7.52e-02,
-8.316000e-05,7.36e-02,
-8.314000e-05,7.52e-02,
-8.312000e-05,7.36e-02,
-8.310000e-05,7.52e-02,
-8.308000e-05,7.36e-02,
-8.306000e-05,7.44e-02,
-8.304000e-05,7.36e-02,
-8.302000e-05,7.52e-02,
-8.300000e-05,7.28e-02,
-8.298000e-05,7.44e-02,
-8.296000e-05,7.28e-02,
-8.294000e-05,7.44e-02,
-8.292000e-05,7.20e-02,
-8.290000e-05,7.44e-02,
-8.288000e-05,7.20e-02,
-8.286000e-05,7.44e-02,
-8.284000e-05,7.28e-02,
-8.282000e-05,7.44e-02,
-8.280000e-05,7.28e-02,
-8.278000e-05,7.44e-02,
-8.276000e-05,7.28e-02,
-8.274000e-05,7.44e-02,
-8.272000e-05,7.20e-02,
-8.270000e-05,7.44e-02,
-8.268000e-05,7.12e-02,
-8.266000e-05,7.36e-02,
-8.264000e-05,7.20e-02,
-8.262000e-05,7.36e-02,
-8.260000e-05,7.20e-02,
-8.258000e-05,7.36e-02,
-8.256000e-05,7.28e-02,
-8.254000e-05,7.44e-02,
-8.252000e-05,7.20e-02,
-8.250000e-05,7.36e-02,
-8.248000e-05,7.28e-02,
-8.246000e-05,7.44e-02,
-8.244000e-05,7.20e-02,
-8.242000e-05,7.44e-02,
-8.240000e-05,7.20e-02,
-8.238000e-05,7.44e-02,
-8.236000e-05,7.20e-02,
-8.234000e-05,7.36e-02,
-8.232000e-05,7.20e-02,
-8.230000e-05,7.36e-02,
-8.228000e-05,7.20e-02,
-8.226000e-05,7.44e-02,
-8.224000e-05,7.20e-02,
-8.222000e-05,7.36e-02,
-8.220000e-05,7.20e-02,
-8.218000e-05,7.44e-02,
-8.216000e-05,7.20e-02,
-8.214000e-05,7.36e-02,
-8.212000e-05,7.12e-02,
-8.210000e-05,7.28e-02,
-8.208000e-05,7.12e-02,
-8.206000e-05,7.28e-02,
-8.204000e-05,7.12e-02,
-8.202000e-05,7.28e-02,
-8.200000e-05,7.12e-02,
-8.198000e-05,7.28e-02,
-8.196000e-05,7.20e-02,
-8.194000e-05,7.36e-02,
-8.192000e-05,7.12e-02,
-8.190000e-05,7.28e-02,
-8.188000e-05,7.12e-02,
-8.186000e-05,7.36e-02,
-8.184000e-05,7.12e-02,
-8.182000e-05,7.36e-02,
-8.180000e-05,7.04e-02,
-8.178000e-05,7.28e-02,
-8.176000e-05,7.12e-02,
-8.174000e-05,7.28e-02,
-8.172000e-05,7.12e-02,
-8.170000e-05,7.28e-02,
-8.168000e-05,7.12e-02,
-8.166000e-05,7.28e-02,
-8.164000e-05,7.04e-02,
-8.162000e-05,7.28e-02,
-8.160000e-05,7.12e-02,
-8.158000e-05,7.28e-02,
-8.156000e-05,7.04e-02,
-8.154000e-05,7.20e-02,
-8.152000e-05,7.04e-02,
-8.150000e-05,7.20e-02,
-8.148000e-05,7.04e-02,
-8.146000e-05,7.20e-02,
-8.144000e-05,6.96e-02,
-8.142000e-05,7.20e-02,
-8.140000e-05,6.96e-02,
-8.138000e-05,7.20e-02,
-8.136000e-05,6.96e-02,
-8.134000e-05,7.12e-02,
-8.132000e-05,7.04e-02,
-8.130000e-05,7.12e-02,
-8.128000e-05,6.96e-02,
-8.126000e-05,7.20e-02,
-8.124000e-05,6.96e-02,
-8.122000e-05,7.20e-02,
-8.120000e-05,6.96e-02,
-8.118000e-05,7.12e-02,
-8.116000e-05,7.04e-02,
-8.114000e-05,7.20e-02,
-8.112000e-05,7.04e-02,
-8.110000e-05,7.20e-02,
-8.108000e-05,6.96e-02,
-8.106000e-05,7.20e-02,
-8.104000e-05,7.04e-02,
-8.102000e-05,7.20e-02,
-8.100000e-05,7.04e-02,
-8.098000e-05,7.20e-02,
-8.096000e-05,7.04e-02,
-8.094000e-05,7.20e-02,
-8.092000e-05,7.04e-02,
-8.090000e-05,7.12e-02,
-8.088000e-05,7.04e-02,
-8.086000e-05,7.20e-02,
-8.084000e-05,7.04e-02,
-8.082000e-05,7.20e-02,
-8.080000e-05,7.04e-02,
-8.078000e-05,7.20e-02,
-8.076000e-05,7.04e-02,
-8.074000e-05,7.20e-02,
-8.072000e-05,6.96e-02,
-8.070000e-05,7.20e-02,
-8.068000e-05,7.04e-02,
-8.066000e-05,7.20e-02,
-8.064000e-05,7.04e-02,
-8.062000e-05,7.20e-02,
-8.060000e-05,7.04e-02,
-8.058000e-05,7.20e-02,
-8.056000e-05,6.96e-02,
-8.054000e-05,7.28e-02,
-8.052000e-05,6.80e-02,
-8.050000e-05,7.20e-02,
-8.048000e-05,6.80e-02,
-8.046000e-05,7.12e-02,
-8.044000e-05,6.80e-02,
-8.042000e-05,7.12e-02,
-8.040000e-05,6.88e-02,
-8.038000e-05,7.04e-02,
-8.036000e-05,6.96e-02,
-8.034000e-05,7.12e-02,
-8.032000e-05,6.96e-02,
-8.030000e-05,7.04e-02,
-8.028000e-05,6.96e-02,
-8.026000e-05,7.12e-02,
-8.024000e-05,6.88e-02,
-8.022000e-05,7.12e-02,
-8.020000e-05,6.88e-02,
-8.018000e-05,7.12e-02,
-8.016000e-05,6.96e-02,
-8.014000e-05,7.04e-02,
-8.012000e-05,6.96e-02,
-8.010000e-05,7.04e-02,
-8.008000e-05,6.96e-02,
-8.006000e-05,7.12e-02,
-8.004000e-05,6.96e-02,
-8.002000e-05,7.12e-02,
-8.000000e-05,6.96e-02,
-7.998000e-05,7.12e-02,
-7.996000e-05,6.88e-02,
-7.994000e-05,7.12e-02,
-7.992000e-05,6.88e-02,
-7.990000e-05,7.12e-02,
-7.988000e-05,6.88e-02,
-7.986000e-05,7.12e-02,
-7.984000e-05,6.88e-02,
-7.982000e-05,7.12e-02,
-7.980000e-05,6.88e-02,
-7.978000e-05,7.12e-02,
-7.976000e-05,6.96e-02,
-7.974000e-05,7.12e-02,
-7.972000e-05,6.96e-02,
-7.970000e-05,7.04e-02,
-7.968000e-05,6.96e-02,
-7.966000e-05,7.12e-02,
-7.964000e-05,6.96e-02,
-7.962000e-05,7.12e-02,
-7.960000e-05,6.96e-02,
-7.958000e-05,7.04e-02,
-7.956000e-05,7.04e-02,
-7.954000e-05,7.20e-02,
-7.952000e-05,6.96e-02,
-7.950000e-05,7.12e-02,
-7.948000e-05,6.96e-02,
-7.946000e-05,7.12e-02,
-7.944000e-05,7.04e-02,
-7.942000e-05,7.04e-02,
-7.940000e-05,7.04e-02,
-7.938000e-05,7.20e-02,
-7.936000e-05,6.96e-02,
-7.934000e-05,7.20e-02,
-7.932000e-05,6.96e-02,
-7.930000e-05,7.20e-02,
-7.928000e-05,6.96e-02,
-7.926000e-05,7.20e-02,
-7.924000e-05,6.96e-02,
-7.922000e-05,7.12e-02,
-7.920000e-05,6.96e-02,
-7.918000e-05,7.20e-02,
-7.916000e-05,6.88e-02,
-7.914000e-05,7.12e-02,
-7.912000e-05,6.88e-02,
-7.910000e-05,7.12e-02,
-7.908000e-05,6.88e-02,
-7.906000e-05,7.04e-02,
-7.904000e-05,6.88e-02,
-7.902000e-05,7.04e-02,
-7.900000e-05,6.88e-02,
-7.898000e-05,7.04e-02,
