DS0011.CSV

Format,2.0A,
Memory Length,5000,
Trigger Level,35.0mV,
Source,CH1,
Label, ,
Probe Ratio,1.000E+00,
Vertical Units,V,
Vertical Scale,2.000E-02,
Vertical Position,-7.600E-02,
Horizontal Units,S,
Horizontal Scale,5.000E-06,
Horizontal Position,2.020E-05,
Horizontal Mode,Main,
Sampling Period,1.000E-08,
Firmware,V1.13,
Time,15-Nov-18 23:10:21,
Mode,Detail,
Waveform Data,
-4.520000e-05,5.76e-02,
-4.519000e-05,5.68e-02,
-4.518000e-05,5.84e-02,
-4.517000e-05,5.60e-02,
-4.516000e-05,5.76e-02,
-4.515000e-05,5.60e-02,
-4.514000e-05,5.76e-02,
-4.513000e-05,5.68e-02,
-4.512000e-05,5.76e-02,
-4.511000e-05,5.68e-02,
-4.510000e-05,5.76e-02,
-4.509000e-05,5.68e-02,
-4.508000e-05,5.76e-02,
-4.507000e-05,5.60e-02,
-4.506000e-05,5.76e-02,
-4.505000e-05,5.68e-02,
-4.504000e-05,5.76e-02,
-4.503000e-05,5.60e-02,
-4.502000e-05,5.76e-02,
-4.501000e-05,5.60e-02,
-4.500000e-05,5.76e-02,
-4.499000e-05,5.60e-02,
-4.498000e-05,5.76e-02,
-4.497000e-05,5.60e-02,
-4.496000e-05,5.76e-02,
-4.495000e-05,5.68e-02,
-4.494000e-05,5.76e-02,
-4.493000e-05,5.60e-02,
-4.492000e-05,5.92e-02,
-4.491000e-05,5.52e-02,
-4.490000e-05,5.84e-02,
-4.489000e-05,5.68e-02,
-4.488000e-05,5.84e-02,
-4.487000e-05,5.76e-02,
-4.486000e-05,5.84e-02,
-4.485000e-05,5.76e-02,
-4.484000e-05,5.84e-02,
-4.483000e-05,5.76e-02,
-4.482000e-05,5.84e-02,
-4.481000e-05,5.76e-02,
-4.480000e-05,5.84e-02,
-4.479000e-05,5.76e-02,
-4.478000e-05,5.84e-02,
-4.477000e-05,5.76e-02,
-4.476000e-05,5.84e-02,
-4.475000e-05,5.76e-02,
-4.474000e-05,5.84e-02,
-4.473000e-05,5.76e-02,
-4.472000e-05,5.84e-02,
-4.471000e-05,5.76e-02,
-4.470000e-05,5.84e-02,
-4.469000e-05,5.68e-02,
-4.468000e-05,5.84e-02,
-4.467000e-05,5.76e-02,
-4.466000e-05,5.84e-02,
-4.465000e-05,5.68e-02,
-4.464000e-05,5.84e-02,
-4.463000e-05,5.68e-02,
-4.462000e-05,5.84e-02,
-4.461000e-05,5.76e-02,
-4.460000e-05,5.84e-02,
-4.459000e-05,5.68e-02,
-4.458000e-05,5.84e-02,
-4.457000e-05,5.68e-02,
-4.456000e-05,5.84e-02,
-4.455000e-05,5.68e-02,
-4.454000e-05,5.84e-02,
-4.453000e-05,5.68e-02,
-4.452000e-05,5.84e-02,
-4.451000e-05,5.68e-02,
-4.450000e-05,5.84e-02,
-4.449000e-05,5.68e-02,
-4.448000e-05,5.84e-02,
-4.447000e-05,5.68e-02,
-4.446000e-05,5.84e-02,
-4.445000e-05,5.68e-02,
-4.444000e-05,5.84e-02,
-4.443000e-05,5.68e-02,
-4.442000e-05,5.84e-02,
-4.441000e-05,5.68e-02,
-4.440000e-05,5.84e-02,
-4.439000e-05,5.68e-02,
-4.438000e-05,5.84e-02,
-4.437000e-05,5.68e-02,
-4.436000e-05,5.84e-02,
-4.435000e-05,5.68e-02,
-4.434000e-05,5.76e-02,
-4.433000e-05,5.68e-02,
-4.432000e-05,5.84e-02,
-4.431000e-05,5.68e-02,
-4.430000e-05,5.76e-02,
-4.429000e-05,5.68e-02,
-4.428000e-05,5.76e-02,
-4.427000e-05,5.76e-02,
-4.426000e-05,5.84e-02,
-4.425000e-05,5.68e-02,
-4.424000e-05,5.84e-02,
-4.423000e-05,5.68e-02,
-4.422000e-05,5.84e-02,
-4.421000e-05,5.68e-02,
-4.420000e-05,5.84e-02,
-4.419000e-05,5.68e-02,
-4.418000e-05,5.84e-02,
-4.417000e-05,5.68e-02,
-4.416000e-05,5.84e-02,
-4.415000e-05,5.76e-02,
-4.414000e-05,5.84e-02,
-4.413000e-05,5.76e-02,
-4.412000e-05,5.76e-02,
-4.411000e-05,5.76e-02,
-4.410000e-05,5.84e-02,
-4.409000e-05,5.76e-02,
-4.408000e-05,5.84e-02,
-4.407000e-05,5.84e-02,
-4.406000e-05,5.84e-02,
-4.405000e-05,5.84e-02,
-4.404000e-05,5.84e-02,
-4.403000e-05,5.84e-02,
-4.402000e-05,5.84e-02,
-4.401000e-05,5.84e-02,
-4.400000e-05,5.92e-02,
-4.399000e-05,5.76e-02,
-4.398000e-05,5.92e-02,
-4.397000e-05,5.76e-02,
-4.396000e-05,5.84e-02,
-4.395000e-05,5.76e-02,
-4.394000e-05,5.92e-02,
-4.393000e-05,5.76e-02,
-4.392000e-05,5.92e-02,
-4.391000e-05,5.76e-02,
-4.390000e-05,5.84e-02,
-4.389000e-05,5.76e-02,
-4.388000e-05,5.92e-02,
-4.387000e-05,5.76e-02,
-4.386000e-05,5.84e-02,
-4.385000e-05,5.76e-02,
-4.384000e-05,5.84e-02,
-4.383000e-05,5.76e-02,
-4.382000e-05,5.84e-02,
-4.381000e-05,5.76e-02,
-4.380000e-05,5.84e-02,
-4.379000e-05,5.76e-02,
-4.378000e-05,5.84e-02,
-4.377000e-05,5.68e-02,
-4.376000e-05,5.84e-02,
-4.375000e-05,5.68e-02,
-4.374000e-05,5.76e-02,
-4.373000e-05,5.68e-02,
-4.372000e-05,5.76e-02,
-4.371000e-05,5.68e-02,
-4.370000e-05,5.76e-02,
-4.369000e-05,5.68e-02,
-4.368000e-05,5.76e-02,
-4.367000e-05,5.76e-02,
-4.366000e-05,5.84e-02,
-4.365000e-05,5.68e-02,
-4.364000e-05,5.84e-02,
-4.363000e-05,5.68e-02,
-4.362000e-05,5.92e-02,
-4.361000e-05,5.60e-02,
-4.360000e-05,5.92e-02,
-4.359000e-05,5.60e-02,
-4.358000e-05,5.92e-02,
-4.357000e-05,5.68e-02,
-4.356000e-05,5.84e-02,
-4.355000e-05,5.68e-02,
-4.354000e-05,5.84e-02,
-4.353000e-05,5.68e-02,
-4.352000e-05,5.76e-02,
-4.351000e-05,5.68e-02,
-4.350000e-05,5.84e-02,
-4.349000e-05,5.68e-02,
-4.348000e-05,5.84e-02,
-4.347000e-05,5.68e-02,
-4.346000e-05,5.84e-02,
-4.345000e-05,5.68e-02,
-4.344000e-05,5.84e-02,
-4.343000e-05,5.68e-02,
-4.342000e-05,5.84e-02,
-4.341000e-05,5.68e-02,
-4.340000e-05,5.76e-02,
-4.339000e-05,5.68e-02,
-4.338000e-05,5.76e-02,
-4.337000e-05,5.68e-02,
-4.336000e-05,5.76e-02,
-4.335000e-05,5.60e-02,
-4.334000e-05,5.76e-02,
-4.333000e-05,5.60e-02,
-4.332000e-05,5.76e-02,
-4.331000e-05,5.60e-02,
-4.330000e-05,5.76e-02,
-4.329000e-05,5.60e-02,
-4.328000e-05,5.68e-02,
-4.327000e-05,5.60e-02,
-4.326000e-05,5.76e-02,
-4.325000e-05,5.60e-02,
-4.324000e-05,5.68e-02,
-4.323000e-05,5.68e-02,
-4.322000e-05,5.68e-02,
-4.321000e-05,5.60e-02,
-4.320000e-05,5.68e-02,
-4.319000e-05,5.60e-02,
-4.318000e-05,5.68e-02,
-4.317000e-05,5.60e-02,
-4.316000e-05,5.76e-02,
-4.315000e-05,5.60e-02,
-4.314000e-05,5.76e-02,
-4.313000e-05,5.60e-02,
-4.312000e-05,5.68e-02,
-4.311000e-05,5.60e-02,
-4.310000e-05,5.68e-02,
-4.309000e-05,5.60e-02,
-4.308000e-05,5.60e-02,
-4.307000e-05,5.68e-02,
-4.306000e-05,5.68e-02,
-4.305000e-05,5.44e-02,
-4.304000e-05,5.60e-02,
-4.303000e-05,5.52e-02,
-4.302000e-05,5.60e-02,
-4.301000e-05,5.52e-02,
-4.300000e-05,5.60e-02,
-4.299000e-05,5.52e-02,
-4.298000e-05,5.60e-02,
-4.297000e-05,5.52e-02,
-4.296000e-05,5.60e-02,
-4.295000e-05,5.52e-02,
-4.294000e-05,5.60e-02,
-4.293000e-05,5.52e-02,
-4.292000e-05,5.60e-02,
-4.291000e-05,5.52e-02,
-4.290000e-05,5.68e-02,
-4.289000e-05,5.44e-02,
-4.288000e-05,5.60e-02,
-4.287000e-05,5.52e-02,
-4.286000e-05,5.68e-02,
-4.285000e-05,5.52e-02,
-4.284000e-05,5.60e-02,
-4.283000e-05,5.52e-02,
-4.282000e-05,5.68e-02,
-4.281000e-05,5.44e-02,
-4.280000e-05,5.68e-02,
-4.279000e-05,5.44e-02,
-4.278000e-05,5.60e-02,
-4.277000e-05,5.44e-02,
-4.276000e-05,5.60e-02,
-4.275000e-05,5.44e-02,
-4.274000e-05,5.60e-02,
-4.273000e-05,5.44e-02,
-4.272000e-05,5.60e-02,
-4.271000e-05,5.44e-02,
-4.270000e-05,5.60e-02,
-4.269000e-05,5.44e-02,
-4.268000e-05,5.60e-02,
-4.267000e-05,5.44e-02,
-4.266000e-05,5.52e-02,
-4.265000e-05,5.44e-02,
-4.264000e-05,5.60e-02,
-4.263000e-05,5.44e-02,
-4.262000e-05,5.52e-02,
-4.261000e-05,5.44e-02,
-4.260000e-05,5.60e-02,
-4.259000e-05,5.44e-02,
-4.258000e-05,5.52e-02,
-4.257000e-05,5.44e-02,
-4.256000e-05,5.52e-02,
-4.255000e-05,5.44e-02,
-4.254000e-05,5.60e-02,
-4.253000e-05,5.44e-02,
-4.252000e-05,5.60e-02,
-4.251000e-05,5.44e-02,
-4.250000e-05,5.52e-02,
-4.249000e-05,5.44e-02,
-4.248000e-05,5.52e-02,
-4.247000e-05,5.44e-02,
-4.246000e-05,5.52e-02,
-4.245000e-05,5.44e-02,
-4.244000e-05,5.52e-02,
-4.243000e-05,5.44e-02,
-4.242000e-05,5.52e-02,
-4.241000e-05,5.44e-02,
-4.240000e-05,5.52e-02,
-4.239000e-05,5.44e-02,
-4.238000e-05,5.52e-02,
-4.237000e-05,5.44e-02,
-4.236000e-05,5.52e-02,
-4.235000e-05,5.44e-02,
-4.234000e-05,5.52e-02,
-4.233000e-05,5.44e-02,
-4.232000e-05,5.60e-02,
-4.231000e-05,5.44e-02,
-4.230000e-05,5.60e-02,
-4.229000e-05,5.44e-02,
-4.228000e-05,5.60e-02,
-4.227000e-05,5.44e-02,
-4.226000e-05,5.60e-02,
-4.225000e-05,5.44e-02,
-4.224000e-05,5.60e-02,
-4.223000e-05,5.44e-02,
-4.222000e-05,5.52e-02,
-4.221000e-05,5.52e-02,
-4.220000e-05,5.60e-02,
-4.219000e-05,5.44e-02,
-4.218000e-05,5.60e-02,
-4.217000e-05,5.44e-02,
-4.216000e-05,5.60e-02,
-4.215000e-05,5.44e-02,
-4.214000e-05,5.60e-02,
-4.213000e-05,5.44e-02,
-4.212000e-05,5.60e-02,
-4.211000e-05,5.52e-02,
-4.210000e-05,5.60e-02,
-4.209000e-05,5.44e-02,
-4.208000e-05,5.60e-02,
-4.207000e-05,5.52e-02,
-4.206000e-05,5.60e-02,
-4.205000e-05,5.44e-02,
-4.204000e-05,5.60e-02,
-4.203000e-05,5.44e-02,
-4.202000e-05,5.60e-02,
-4.201000e-05,5.44e-02,
-4.200000e-05,5.60e-02,
-4.199000e-05,5.44e-02,
-4.198000e-05,5.60e-02,
-4.197000e-05,5.44e-02,
-4.196000e-05,5.60e-02,
-4.195000e-05,5.44e-02,
-4.194000e-05,5.60e-02,
-4.193000e-05,5.44e-02,
-4.192000e-05,5.60e-02,
-4.191000e-05,5.44e-02,
-4.190000e-05,5.52e-02,
-4.189000e-05,5.52e-02,
-4.188000e-05,5.60e-02,
-4.187000e-05,5.52e-02,
-4.186000e-05,5.60e-02,
-4.185000e-05,5.52e-02,
-4.184000e-05,5.60e-02,
-4.183000e-05,5.52e-02,
-4.182000e-05,5.60e-02,
-4.181000e-05,5.44e-02,
-4.180000e-05,5.60e-02,
-4.179000e-05,5.44e-02,
-4.178000e-05,5.60e-02,
-4.177000e-05,5.44e-02,
-4.176000e-05,5.60e-02,
-4.175000e-05,5.44e-02,
-4.174000e-05,5.60e-02,
-4.173000e-05,5.52e-02,
-4.172000e-05,5.60e-02,
-4.171000e-05,5.44e-02,
-4.170000e-05,5.60e-02,
-4.169000e-05,5.44e-02,
-4.168000e-05,5.60e-02,
-4.167000e-05,5.52e-02,
-4.166000e-05,5.60e-02,
-4.165000e-05,5.52e-02,
-4.164000e-05,5.68e-02,
-4.163000e-05,5.44e-02,
-4.162000e-05,5.60e-02,
-4.161000e-05,5.52e-02,
-4.160000e-05,5.68e-02,
-4.159000e-05,5.44e-02,
-4.158000e-05,5.60e-02,
-4.157000e-05,5.52e-02,
-4.156000e-05,5.60e-02,
-4.155000e-05,5.52e-02,
-4.154000e-05,5.60e-02,
-4.153000e-05,5.52e-02,
-4.152000e-05,5.60e-02,
-4.151000e-05,5.52e-02,
-4.150000e-05,5.60e-02,
-4.149000e-05,5.52e-02,
-4.148000e-05,5.60e-02,
-4.147000e-05,5.52e-02,
-4.146000e-05,5.68e-02,
-4.145000e-05,5.52e-02,
-4.144000e-05,5.68e-02,
-4.143000e-05,5.44e-02,
-4.142000e-05,5.68e-02,
-4.141000e-05,5.52e-02,
-4.140000e-05,5.60e-02,
-4.139000e-05,5.52e-02,
-4.138000e-05,5.60e-02,
-4.137000e-05,5.52e-02,
-4.136000e-05,5.60e-02,
-4.135000e-05,5.52e-02,
-4.134000e-05,5.60e-02,
-4.133000e-05,5.52e-02,
-4.132000e-05,5.60e-02,
-4.131000e-05,5.52e-02,
-4.130000e-05,5.60e-02,
-4.129000e-05,5.52e-02,
-4.128000e-05,5.60e-02,
-4.127000e-05,5.52e-02,
-4.126000e-05,5.60e-02,
-4.125000e-05,5.44e-02,
-4.124000e-05,5.60e-02,
-4.123000e-05,5.44e-02,
-4.122000e-05,5.60e-02,
-4.121000e-05,5.52e-02,
-4.120000e-05,5.60e-02,
-4.119000e-05,5.52e-02,
-4.118000e-05,5.60e-02,
-4.117000e-05,5.52e-02,
-4.116000e-05,5.60e-02,
-4.115000e-05,5.52e-02,
-4.114000e-05,5.60e-02,
-4.113000e-05,5.52e-02,
-4.112000e-05,5.60e-02,
-4.111000e-05,5.52e-02,
-4.110000e-05,5.60e-02,
-4.109000e-05,5.52e-02,
-4.108000e-05,5.60e-02,
-4.107000e-05,5.52e-02,
-4.106000e-05,5.60e-02,
-4.105000e-05,5.44e-02,
-4.104000e-05,5.60e-02,
-4.103000e-05,5.44e-02,
-4.102000e-05,5.60e-02,
-4.101000e-05,5.44e-02,
-4.100000e-05,5.60e-02,
-4.099000e-05,5.44e-02,
-4.098000e-05,5.60e-02,
-4.097000e-05,5.36e-02,
-4.096000e-05,5.60e-02,
-4.095000e-05,5.36e-02,
-4.094000e-05,5.60e-02,
-4.093000e-05,5.36e-02,
-4.092000e-05,5.52e-02,
-4.091000e-05,5.44e-02,
-4.090000e-05,5.52e-02,
-4.089000e-05,5.44e-02,
-4.088000e-05,5.52e-02,
-4.087000e-05,5.36e-02,
-4.086000e-05,5.60e-02,
-4.085000e-05,5.44e-02,
-4.084000e-05,5.52e-02,
-4.083000e-05,5.52e-02,
-4.082000e-05,5.52e-02,
-4.081000e-05,5.52e-02,
-4.080000e-05,5.60e-02,
-4.079000e-05,5.44e-02,
-4.078000e-05,5.52e-02,
-4.077000e-05,5.44e-02,
-4.076000e-05,5.60e-02,
-4.075000e-05,5.44e-02,
-4.074000e-05,5.52e-02,
-4.073000e-05,5.44e-02,
-4.072000e-05,5.52e-02,
-4.071000e-05,5.44e-02,
-4.070000e-05,5.60e-02,
-4.069000e-05,5.36e-02,
-4.068000e-05,5.60e-02,
-4.067000e-05,5.44e-02,
-4.066000e-05,5.68e-02,
-4.065000e-05,5.36e-02,
-4.064000e-05,5.60e-02,
-4.063000e-05,5.44e-02,
-4.062000e-05,5.60e-02,
-4.061000e-05,5.52e-02,
-4.060000e-05,5.68e-02,
-4.059000e-05,5.44e-02,
-4.058000e-05,5.60e-02,
-4.057000e-05,5.52e-02,
-4.056000e-05,5.60e-02,
-4.055000e-05,5.52e-02,
-4.054000e-05,5.60e-02,
-4.053000e-05,5.52e-02,
-4.052000e-05,5.68e-02,
-4.051000e-05,5.52e-02,
-4.050000e-05,5.60e-02,
-4.049000e-05,5.52e-02,
-4.048000e-05,5.84e-02,
-4.047000e-05,5.28e-02,
-4.046000e-05,6.16e-02,
-4.045000e-05,4.96e-02,
-4.044000e-05,5.92e-02,
-4.043000e-05,5.04e-02,
-4.042000e-05,4.96e-02,
-4.041000e-05,6.32e-02,
-4.040000e-05,1.10e-01,
-4.039000e-05,2.40e-02,
-4.038000e-05,-2.08e-02,
-4.037000e-05,1.44e-01,
-4.036000e-05,8.80e-02,
-4.035000e-05,0.00e+00,
-4.034000e-05,1.10e-01,
-4.033000e-05,2.56e-02,
-4.032000e-05,8.08e-02,
-4.031000e-05,3.44e-02,
-4.030000e-05,4.88e-02,
-4.029000e-05,6.08e-02,
-4.028000e-05,6.96e-02,
-4.027000e-05,4.72e-02,
-4.026000e-05,6.48e-02,
-4.025000e-05,4.80e-02,
-4.024000e-05,5.84e-02,
-4.023000e-05,5.28e-02,
-4.022000e-05,5.44e-02,
-4.021000e-05,5.60e-02,
-4.020000e-05,5.36e-02,
-4.019000e-05,5.68e-02,
-4.018000e-05,5.44e-02,
-4.017000e-05,5.60e-02,
-4.016000e-05,5.36e-02,
-4.015000e-05,5.76e-02,
-4.014000e-05,5.44e-02,
-4.013000e-05,5.76e-02,
-4.012000e-05,5.52e-02,
-4.011000e-05,5.68e-02,
-4.010000e-05,5.60e-02,
-4.009000e-05,5.68e-02,
-4.008000e-05,5.60e-02,
-4.007000e-05,5.60e-02,
-4.006000e-05,5.60e-02,
-4.005000e-05,5.60e-02,
-4.004000e-05,5.60e-02,
-4.003000e-05,5.60e-02,
-4.002000e-05,5.68e-02,
-4.001000e-05,5.52e-02,
-4.000000e-05,5.68e-02,
-3.999000e-05,5.60e-02,
-3.998000e-05,5.68e-02,
-3.997000e-05,5.52e-02,
-3.996000e-05,5.68e-02,
-3.995000e-05,5.52e-02,
-3.994000e-05,5.68e-02,
-3.993000e-05,5.52e-02,
-3.992000e-05,5.68e-02,
-3.991000e-05,5.60e-02,
-3.990000e-05,5.68e-02,
-3.989000e-05,5.52e-02,
-3.988000e-05,5.68e-02,
-3.987000e-05,5.52e-02,
-3.986000e-05,5.68e-02,
-3.985000e-05,5.52e-02,
-3.984000e-05,5.68e-02,
-3.983000e-05,5.60e-02,
-3.982000e-05,5.68e-02,
-3.981000e-05,5.52e-02,
-3.980000e-05,5.68e-02,
-3.979000e-05,5.52e-02,
-3.978000e-05,5.68e-02,
-3.977000e-05,5.60e-02,
-3.976000e-05,5.60e-02,
-3.975000e-05,5.68e-02,
-3.974000e-05,5.60e-02,
-3.973000e-05,5.76e-02,
-3.972000e-05,5.68e-02,
-3.971000e-05,5.60e-02,
-3.970000e-05,5.68e-02,
-3.969000e-05,5.60e-02,
-3.968000e-05,5.76e-02,
-3.967000e-05,5.60e-02,
-3.966000e-05,5.76e-02,
-3.965000e-05,5.68e-02,
-3.964000e-05,5.76e-02,
-3.963000e-05,5.60e-02,
-3.962000e-05,5.76e-02,
-3.961000e-05,5.60e-02,
-3.960000e-05,5.76e-02,
-3.959000e-05,5.60e-02,
-3.958000e-05,5.76e-02,
-3.957000e-05,5.60e-02,
-3.956000e-05,5.76e-02,
-3.955000e-05,5.60e-02,
-3.954000e-05,5.76e-02,
-3.953000e-05,5.60e-02,
-3.952000e-05,5.76e-02,
-3.951000e-05,5.60e-02,
-3.950000e-05,5.76e-02,
-3.949000e-05,5.60e-02,
-3.948000e-05,5.76e-02,
-3.947000e-05,5.60e-02,
-3.946000e-05,5.76e-02,
-3.945000e-05,5.60e-02,
-3.944000e-05,5.76e-02,
-3.943000e-05,5.60e-02,
-3.942000e-05,5.76e-02,
-3.941000e-05,5.60e-02,
-3.940000e-05,5.76e-02,
-3.939000e-05,5.60e-02,
-3.938000e-05,5.76e-02,
-3.937000e-05,5.60e-02,
-3.936000e-05,5.76e-02,
-3.935000e-05,5.60e-02,
-3.934000e-05,5.76e-02,
-3.933000e-05,5.60e-02,
-3.932000e-05,5.76e-02,
-3.931000e-05,5.60e-02,
-3.930000e-05,5.76e-02,
-3.929000e-05,5.60e-02,
-3.928000e-05,5.76e-02,
-3.927000e-05,5.60e-02,
-3.926000e-05,5.68e-02,
-3.925000e-05,5.60e-02,
-3.924000e-05,5.76e-02,
-3.923000e-05,5.60e-02,
-3.922000e-05,5.76e-02,
-3.921000e-05,5.60e-02,
-3.920000e-05,5.76e-02,
-3.919000e-05,5.60e-02,
-3.918000e-05,5.68e-02,
-3.917000e-05,5.60e-02,
-3.916000e-05,5.76e-02,
-3.915000e-05,5.52e-02,
-3.914000e-05,5.68e-02,
-3.913000e-05,5.60e-02,
-3.912000e-05,5.68e-02,
-3.911000e-05,5.60e-02,
-3.910000e-05,5.68e-02,
-3.909000e-05,5.60e-02,
-3.908000e-05,5.68e-02,
-3.907000e-05,5.60e-02,
-3.906000e-05,5.68e-02,
-3.905000e-05,5.60e-02,
-3.904000e-05,5.76e-02,
-3.903000e-05,5.52e-02,
-3.902000e-05,5.76e-02,
-3.901000e-05,5.52e-02,
-3.900000e-05,5.68e-02,
-3.899000e-05,5.60e-02,
-3.898000e-05,5.68e-02,
-3.897000e-05,5.60e-02,
-3.896000e-05,5.68e-02,
-3.895000e-05,5.60e-02,
-3.894000e-05,5.68e-02,
-3.893000e-05,5.60e-02,
-3.892000e-05,5.68e-02,
-3.891000e-05,5.60e-02,
-3.890000e-05,5.60e-02,
-3.889000e-05,5.52e-02,
-3.888000e-05,5.68e-02,
-3.887000e-05,5.44e-02,
-3.886000e-05,5.60e-02,
-3.885000e-05,5.44e-02,
-3.884000e-05,5.60e-02,
-3.883000e-05,5.44e-02,
-3.882000e-05,5.60e-02,
-3.881000e-05,5.44e-02,
-3.880000e-05,5.60e-02,
-3.879000e-05,5.44e-02,
-3.878000e-05,5.52e-02,
-3.877000e-05,5.52e-02,
-3.876000e-05,5.60e-02,
-3.875000e-05,5.52e-02,
-3.874000e-05,5.60e-02,
-3.873000e-05,5.52e-02,
-3.872000e-05,5.60e-02,
-3.871000e-05,5.44e-02,
-3.870000e-05,5.60e-02,
-3.869000e-05,5.44e-02,
-3.868000e-05,5.60e-02,
-3.867000e-05,5.44e-02,
-3.866000e-05,5.60e-02,
-3.865000e-05,5.44e-02,
-3.864000e-05,5.60e-02,
-3.863000e-05,5.52e-02,
-3.862000e-05,5.60e-02,
-3.861000e-05,5.52e-02,
-3.860000e-05,5.60e-02,
-3.859000e-05,5.52e-02,
-3.858000e-05,5.60e-02,
-3.857000e-05,5.52e-02,
-3.856000e-05,5.60e-02,
-3.855000e-05,5.52e-02,
-3.854000e-05,5.60e-02,
-3.853000e-05,5.52e-02,
-3.852000e-05,5.68e-02,
-3.851000e-05,5.52e-02,
-3.850000e-05,5.68e-02,
-3.849000e-05,5.44e-02,
-3.848000e-05,5.68e-02,
-3.847000e-05,5.44e-02,
-3.846000e-05,5.60e-02,
-3.845000e-05,5.52e-02,
-3.844000e-05,5.60e-02,
-3.843000e-05,5.52e-02,
-3.842000e-05,5.60e-02,
-3.841000e-05,5.52e-02,
-3.840000e-05,5.60e-02,
-3.839000e-05,5.52e-02,
-3.838000e-05,5.68e-02,
-3.837000e-05,5.52e-02,
-3.836000e-05,5.68e-02,
-3.835000e-05,5.52e-02,
-3.834000e-05,5.60e-02,
-3.833000e-05,5.52e-02,
-3.832000e-05,5.60e-02,
-3.831000e-05,5.52e-02,
-3.830000e-05,5.60e-02,
-3.829000e-05,5.52e-02,
-3.828000e-05,5.52e-02,
-3.827000e-05,5.52e-02,
-3.826000e-05,5.52e-02,
-3.825000e-05,5.60e-02,
-3.824000e-05,5.68e-02,
-3.823000e-05,5.36e-02,
-3.822000e-05,5.52e-02,
-3.821000e-05,5.52e-02,
-3.820000e-05,5.60e-02,
-3.819000e-05,5.52e-02,
-3.818000e-05,5.68e-02,
-3.817000e-05,5.52e-02,
-3.816000e-05,5.76e-02,
-3.815000e-05,5.52e-02,
-3.814000e-05,5.76e-02,
-3.813000e-05,5.52e-02,
-3.812000e-05,5.92e-02,
-3.811000e-05,5.28e-02,
-3.810000e-05,6.00e-02,
-3.809000e-05,5.36e-02,
-3.808000e-05,5.84e-02,
-3.807000e-05,5.44e-02,
-3.806000e-05,5.68e-02,
-3.805000e-05,5.60e-02,
-3.804000e-05,5.68e-02,
-3.803000e-05,5.52e-02,
-3.802000e-05,5.84e-02,
-3.801000e-05,5.44e-02,
-3.800000e-05,5.76e-02,
-3.799000e-05,5.44e-02,
-3.798000e-05,5.60e-02,
-3.797000e-05,5.60e-02,
-3.796000e-05,5.68e-02,
-3.795000e-05,5.52e-02,
-3.794000e-05,5.60e-02,
-3.793000e-05,5.60e-02,
-3.792000e-05,5.60e-02,
-3.791000e-05,5.60e-02,
-3.790000e-05,5.60e-02,
-3.789000e-05,5.60e-02,
-3.788000e-05,5.60e-02,
-3.787000e-05,5.60e-02,
-3.786000e-05,5.68e-02,
-3.785000e-05,5.52e-02,
-3.784000e-05,5.68e-02,
-3.783000e-05,5.52e-02,
-3.782000e-05,5.68e-02,
-3.781000e-05,5.52e-02,
-3.780000e-05,5.68e-02,
-3.779000e-05,5.60e-02,
-3.778000e-05,5.68e-02,
-3.777000e-05,5.60e-02,
-3.776000e-05,5.68e-02,
-3.775000e-05,5.52e-02,
-3.774000e-05,5.68e-02,
-3.773000e-05,5.52e-02,
-3.772000e-05,5.68e-02,
-3.771000e-05,5.60e-02,
-3.770000e-05,5.84e-02,
-3.769000e-05,5.44e-02,
-3.768000e-05,5.60e-02,
-3.767000e-05,5.76e-02,
-3.766000e-05,5.84e-02,
-3.765000e-05,5.60e-02,
-3.764000e-05,5.92e-02,
-3.763000e-05,5.52e-02,
-3.762000e-05,5.68e-02,
-3.761000e-05,5.76e-02,
-3.760000e-05,5.76e-02,
-3.759000e-05,5.68e-02,
-3.758000e-05,5.76e-02,
-3.757000e-05,5.68e-02,
-3.756000e-05,5.76e-02,
-3.755000e-05,5.68e-02,
-3.754000e-05,5.84e-02,
-3.753000e-05,5.60e-02,
-3.752000e-05,5.76e-02,
-3.751000e-05,5.68e-02,
-3.750000e-05,5.76e-02,
-3.749000e-05,5.68e-02,
-3.748000e-05,5.76e-02,
-3.747000e-05,5.60e-02,
-3.746000e-05,5.76e-02,
-3.745000e-05,5.68e-02,
-3.744000e-05,5.68e-02,
-3.743000e-05,5.68e-02,
-3.742000e-05,5.76e-02,
-3.741000e-05,5.68e-02,
-3.740000e-05,5.76e-02,
-3.739000e-05,5.68e-02,
-3.738000e-05,5.76e-02,
-3.737000e-05,5.60e-02,
-3.736000e-05,5.76e-02,
-3.735000e-05,5.60e-02,
-3.734000e-05,5.76e-02,
-3.733000e-05,5.60e-02,
-3.732000e-05,5.68e-02,
-3.731000e-05,5.60e-02,
-3.730000e-05,5.76e-02,
-3.729000e-05,5.68e-02,
-3.728000e-05,5.68e-02,
-3.727000e-05,5.68e-02,
-3.726000e-05,5.76e-02,
-3.725000e-05,5.60e-02,
-3.724000e-05,5.76e-02,
-3.723000e-05,5.60e-02,
-3.722000e-05,5.76e-02,
-3.721000e-05,5.60e-02,
-3.720000e-05,5.76e-02,
-3.719000e-05,5.60e-02,
-3.718000e-05,5.76e-02,
-3.717000e-05,5.60e-02,
-3.716000e-05,5.76e-02,
-3.715000e-05,5.60e-02,
-3.714000e-05,5.76e-02,
-3.713000e-05,5.60e-02,
-3.712000e-05,5.76e-02,
-3.711000e-05,5.60e-02,
-3.710000e-05,5.76e-02,
-3.709000e-05,5.60e-02,
-3.708000e-05,5.76e-02,
-3.707000e-05,5.52e-02,
-3.706000e-05,5.76e-02,
-3.705000e-05,5.52e-02,
-3.704000e-05,5.68e-02,
